DTSA5301_COVID19_Data_Analysis
…
global %>% filter(cases > 28000000)

## # A tibble: 2,510 × 5
##    Province_State Country_Region date          cases deaths
##    <chr>          <chr>          <date>        <dbl>  <dbl>
##  1 <NA>           Brazil         2022-02-18 28072238 643340
##  2 <NA>           Brazil         2022-02-19 28177367 644195
##  3 <NA>           Brazil         2022-02-20 28218180 644592
##  4 <NA>           Brazil         2022-02-21 28258458 644918
##  5 <NA>           Brazil         2022-02-22 28361951 645735
##  6 <NA>           Brazil         2022-02-23 28493336 646714
##  7 <NA>           Brazil         2022-02-24 28589235 647703
##  8 <NA>           Brazil         2022-02-25 28679671 648496
##  9 <NA>           Brazil         2022-02-26 28749552 649184
## 10 <NA>           Brazil         2022-02-27 28776794 649437
## # ℹ 2,500 more rows

US_cases <- US_cases %>% 
  pivot_longer(cols = -(UID:Combined_Key),
               names_to = "date",
               values_to = "cases") %>% 
  select(Admin2:cases) %>% 
  mutate(date = mdy(date)) %>% 
  select(-c(Lat, Long_))

US_cases

## # A tibble: 3,819,906 × 6
##    Admin2  Province_State Country_Region Combined_Key         date       cases
##    <chr>   <chr>          <chr>          <chr>                <date>     <dbl>
##  1 Autauga Alabama        US             Autauga, Alabama, US 2020-01-22     0
##  2 Autauga Alabama        US             Autauga, Alabama, US 2020-01-23     0
##  3 Autauga Alabama        US             Autauga, Alabama, US 2020-01-24     0
##  4 Autauga Alabama        US             Autauga, Alabama, US 2020-01-25     0
##  5 Autauga Alabama        US             Autauga, Alabama, US 2020-01-26     0
##  6 Autauga Alabama        US             Autauga, Alabama, US 2020-01-27     0
##  7 Autauga Alabama        US             Autauga, Alabama, US 2020-01-28     0
##  8 Autauga Alabama        US             Autauga, Alabama, US 2020-01-29     0
##  9 Autauga Alabama        US             Autauga, Alabama, US 2020-01-30     0
## 10 Autauga Alabama        US             Autauga, Alabama, US 2020-01-31     0
## # ℹ 3,819,896 more rows

US_deaths <- US_deaths %>% 
  pivot_longer(cols = -(UID:Population),
               names_to = "date",
               values_to = "deaths") %>% 
  select(Admin2:deaths) %>% 
  mutate(date = mdy(date)) %>% 
  select(-c(Lat, Long_))

US_deaths

## # A tibble: 3,819,906 × 7
##    Admin2  Province_State Country_Region Combined_Key      Population date      
##    <chr>   <chr>          <chr>          <chr>                  <dbl> <date>    
##  1 Autauga Alabama        US             Autauga, Alabama…      55869 2020-01-22
##  2 Autauga Alabama        US             Autauga, Alabama…      55869 2020-01-23
##  3 Autauga Alabama        US             Autauga, Alabama…      55869 2020-01-24
##  4 Autauga Alabama        US             Autauga, Alabama…      55869 2020-01-25
##  5 Autauga Alabama        US             Autauga, Alabama…      55869 2020-01-26
##  6 Autauga Alabama        US             Autauga, Alabama…      55869 2020-01-27
##  7 Autauga Alabama        US             Autauga, Alabama…      55869 2020-01-28
##  8 Autauga Alabama        US             Autauga, Alabama…      55869 2020-01-29
##  9 Autauga Alabama        US             Autauga, Alabama…      55869 2020-01-30
## 10 Autauga Alabama        US             Autauga, Alabama…      55869 2020-01-31
## # ℹ 3,819,896 more rows
## # ℹ 1 more variable: deaths <dbl>

US <- US_cases %>% 
  full_join(US_deaths)

## Joining with `by = join_by(Admin2, Province_State, Country_Region,
## Combined_Key, date)`

US

## # A tibble: 3,819,906 × 8
##    Admin2 Province_State Country_Region Combined_Key date       cases Population
##    <chr>  <chr>          <chr>          <chr>        <date>     <dbl>      <dbl>
##  1 Autau… Alabama        US             Autauga, Al… 2020-01-22     0      55869
##  2 Autau… Alabama        US             Autauga, Al… 2020-01-23     0      55869
##  3 Autau… Alabama        US             Autauga, Al… 2020-01-24     0      55869
##  4 Autau… Alabama        US             Autauga, Al… 2020-01-25     0      55869
##  5 Autau… Alabama        US             Autauga, Al… 2020-01-26     0      55869
##  6 Autau… Alabama        US             Autauga, Al… 2020-01-27     0      55869
##  7 Autau… Alabama        US             Autauga, Al… 2020-01-28     0      55869
##  8 Autau… Alabama        US             Autauga, Al… 2020-01-29     0      55869
##  9 Autau… Alabama        US             Autauga, Al… 2020-01-30     0      55869
## 10 Autau… Alabama        US             Autauga, Al… 2020-01-31     0      55869
## # ℹ 3,819,896 more rows
## # ℹ 1 more variable: deaths <dbl>

global <- global %>% 
  unite("Combined_Key",
        c(Province_State, Country_Region),
        sep = ", ",
        na.rm = TRUE,
        remove = FALSE)

global

## # A tibble: 306,827 × 6
##    Combined_Key Province_State Country_Region date       cases deaths
##    <chr>        <chr>          <chr>          <date>     <dbl>  <dbl>
##  1 Afghanistan  <NA>           Afghanistan    2020-02-24     5      0
##  2 Afghanistan  <NA>           Afghanistan    2020-02-25     5      0
##  3 Afghanistan  <NA>           Afghanistan    2020-02-26     5      0
##  4 Afghanistan  <NA>           Afghanistan    2020-02-27     5      0
##  5 Afghanistan  <NA>           Afghanistan    2020-02-28     5      0
##  6 Afghanistan  <NA>           Afghanistan    2020-02-29     5      0
##  7 Afghanistan  <NA>           Afghanistan    2020-03-01     5      0
##  8 Afghanistan  <NA>           Afghanistan    2020-03-02     5      0
##  9 Afghanistan  <NA>           Afghanistan    2020-03-03     5      0
## 10 Afghanistan  <NA>           Afghanistan    2020-03-04     5      0
## # ℹ 306,817 more rows
…
global <- global %>% 
  left_join(uid, by = c("Province_State", "Country_Region")) %>% 
  select(-c(UID, FIPS)) %>% 
  select(Province_State, Country_Region, date, cases, deaths, Population, Combined_Key)
global

## # A tibble: 306,827 × 7
##    Province_State Country_Region date       cases deaths Population Combined_Key
##    <chr>          <chr>          <date>     <dbl>  <dbl>      <dbl> <chr>       
##  1 <NA>           Afghanistan    2020-02-24     5      0   38928341 Afghanistan 
##  2 <NA>           Afghanistan    2020-02-25     5      0   38928341 Afghanistan 
##  3 <NA>           Afghanistan    2020-02-26     5      0   38928341 Afghanistan 
##  4 <NA>           Afghanistan    2020-02-27     5      0   38928341 Afghanistan 
##  5 <NA>           Afghanistan    2020-02-28     5      0   38928341 Afghanistan 
##  6 <NA>           Afghanistan    2020-02-29     5      0   38928341 Afghanistan 
##  7 <NA>           Afghanistan    2020-03-01     5      0   38928341 Afghanistan 
##  8 <NA>           Afghanistan    2020-03-02     5      0   38928341 Afghanistan 
##  9 <NA>           Afghanistan    2020-03-03     5      0   38928341 Afghanistan 
## 10 <NA>           Afghanistan    2020-03-04     5      0   38928341 Afghanistan 
## # ℹ 306,817 more rows
…
## `summarise()` has regrouped the output.
## ℹ Summaries were computed grouped by Country_Region and date.
## ℹ Output is grouped by Country_Region.
## ℹ Use `summarise(.groups = "drop_last")` to silence this message.
## ℹ Use `summarise(.by = c(Country_Region, date))` for per-operation grouping
##   (`?dplyr::dplyr_by`) instead.

US_totals

## # A tibble: 1,143 × 6
##    Country_Region date       cases deaths deaths_per_mill Population
##    <chr>          <date>     <dbl>  <dbl>           <dbl>      <dbl>
##  1 US             2020-01-22     1      1         0.00300  332875137
##  2 US             2020-01-23     1      1         0.00300  332875137
##  3 US             2020-01-24     2      1         0.00300  332875137
##  4 US             2020-01-25     2      1         0.00300  332875137
##  5 US             2020-01-26     5      1         0.00300  332875137
##  6 US             2020-01-27     5      1         0.00300  332875137
##  7 US             2020-01-28     5      1         0.00300  332875137
##  8 US             2020-01-29     6      1         0.00300  332875137
##  9 US             2020-01-30     6      1         0.00300  332875137
## 10 US             2020-01-31     8      1         0.00300  332875137
## # ℹ 1,133 more rows
…
## # A tibble: 1 × 6
##   Province_State deaths cases population cases_per_thou deaths_per_thou
##   <chr>           <dbl> <dbl>      <dbl>          <dbl>           <dbl>
## 1 American Samoa     34  8320      55641           150.           0.611

US_state_totals %>% slice_max(cases_per_thou)

## # A tibble: 1 × 6
##   Province_State deaths  cases population cases_per_thou deaths_per_thou
##   <chr>           <dbl>  <dbl>      <dbl>          <dbl>           <dbl>
## 1 Rhode Island     3870 460697    1059361           435.            3.65

US_state_totals %>% mutate(pred = predict(mod))

## # A tibble: 56 × 7
##    Province_State  deaths  cases population cases_per_thou deaths_per_thou  pred
##    <chr>            <dbl>  <dbl>      <dbl>          <dbl>           <dbl> <dbl>
##  1 Alabama          21032 1.64e6    4903185           335.           4.29   3.44
##  2 Alaska            1486 3.08e5     740995           415.           2.01   4.34
##  3 American Samoa      34 8.32e3      55641           150.           0.611  1.33
##  4 Arizona          33102 2.44e6    7278717           336.           4.55   3.44
##  5 Arkansas         13020 1.01e6    3017804           334.           4.31   3.42
##  6 California      101159 1.21e7   39512223           307.           2.56   3.12
##  7 Colorado         14181 1.76e6    5758736           306.           2.46   3.11
##  8 Connecticut      12220 9.77e5    3565287           274.           3.43   2.74
##  9 Delaware          3324 3.31e5     973764           340.           3.41   3.49
## 10 District of Co…   1432 1.78e5     705749           252.           2.03   2.49
## # ℹ 46 more rows

US_tot_w_pred <- US_state_totals %>% mutate(pred = predict(mod))
US_tot_w_pred

## # A tibble: 56 × 7
##    Province_State  deaths  cases population cases_per_thou deaths_per_thou  pred
##    <chr>            <dbl>  <dbl>      <dbl>          <dbl>           <dbl> <dbl>
##  1 Alabama          21032 1.64e6    4903185           335.           4.29   3.44
##  2 Alaska            1486 3.08e5     740995           415.           2.01   4.34
##  3 American Samoa      34 8.32e3      55641           150.           0.611  1.33
##  4 Arizona          33102 2.44e6    7278717           336.           4.55   3.44
##  5 Arkansas         13020 1.01e6    3017804           334.           4.31   3.42
##  6 California      101159 1.21e7   39512223           307.           2.56   3.12
##  7 Colorado         14181 1.76e6    5758736           306.           2.46   3.11
##  8 Connecticut      12220 9.77e5    3565287           274.           3.43   2.74
##  9 Delaware          3324 3.31e5     973764           340.           3.41   3.49
## 10 District of Co…   1432 1.78e5     705749           252.           2.03   2.49
## # ℹ 46 more rows
…
